<?xml version="1.0" encoding="UTF-8"?>
<svg xmlns="http://www.w3.org/2000/svg" width="105" height="20">
    <linearGradient id="b" x2="0" y2="100%">
        <stop offset="0" stop-color="#bbb" stop-opacity=".1"/>
        <stop offset="1" stop-opacity=".1"/>
    </linearGradient>
    <mask id="anybadge_1">
        <rect width="105" height="20" rx="3" fill="#fff"/>
    </mask>
    <g mask="url(#anybadge_1)">
        <path fill="#555" d="M0 0h38v20H0z"/>
        <path fill="#c05b00" d="M38 0h67v20H38z"/>
        <path fill="url(#b)" d="M0 0h105v20H0z"/>
    </g>
    <g fill="#fff" text-anchor="middle" font-family="DejaVu Sans,Verdana,Geneva,sans-serif" font-size="11">
        <text x="20.0" y="15" fill="#010101" fill-opacity=".3">boss</text>
        <text x="19.0" y="14">boss</text>
    </g>
    <g fill="#fff" text-anchor="middle" font-family="DejaVu Sans,Verdana,Geneva,sans-serif" font-size="11">
        <text x="72.5" y="15" fill="#010101" fill-opacity=".3">23.8143%</text>
        <text x="71.5" y="14">23.8143%</text>
    </g>
</svg>
