<?xml version="1.0" encoding="UTF-8"?>
<svg xmlns="http://www.w3.org/2000/svg" width="104" height="20">
    <linearGradient id="b" x2="0" y2="100%">
        <stop offset="0" stop-color="#bbb" stop-opacity=".1"/>
        <stop offset="1" stop-opacity=".1"/>
    </linearGradient>
    <mask id="anybadge_1">
        <rect width="104" height="20" rx="3" fill="#fff"/>
    </mask>
    <g mask="url(#anybadge_1)">
        <path fill="#555" d="M0 0h37v20H0z"/>
        <path fill="#c09c00" d="M37 0h67v20H37z"/>
        <path fill="url(#b)" d="M0 0h104v20H0z"/>
    </g>
    <g fill="#fff" text-anchor="middle" font-family="DejaVu Sans,Verdana,Geneva,sans-serif" font-size="11">
        <text x="19.5" y="15" fill="#010101" fill-opacity=".3">race</text>
        <text x="18.5" y="14">race</text>
    </g>
    <g fill="#fff" text-anchor="middle" font-family="DejaVu Sans,Verdana,Geneva,sans-serif" font-size="11">
        <text x="71.5" y="15" fill="#010101" fill-opacity=".3">40.5697%</text>
        <text x="70.5" y="14">40.5697%</text>
    </g>
</svg>
