<?xml version="1.0" encoding="UTF-8"?>
<svg xmlns="http://www.w3.org/2000/svg" width="118" height="20">
    <linearGradient id="b" x2="0" y2="100%">
        <stop offset="0" stop-color="#bbb" stop-opacity=".1"/>
        <stop offset="1" stop-opacity=".1"/>
    </linearGradient>
    <mask id="anybadge_1">
        <rect width="118" height="20" rx="3" fill="#fff"/>
    </mask>
    <g mask="url(#anybadge_1)">
        <path fill="#555" d="M0 0h51v20H0z"/>
        <path fill="#a3c000" d="M51 0h67v20H51z"/>
        <path fill="url(#b)" d="M0 0h118v20H0z"/>
    </g>
    <g fill="#fff" text-anchor="middle" font-family="DejaVu Sans,Verdana,Geneva,sans-serif" font-size="11">
        <text x="26.5" y="15" fill="#010101" fill-opacity=".3">arcade</text>
        <text x="25.5" y="14">arcade</text>
    </g>
    <g fill="#fff" text-anchor="middle" font-family="DejaVu Sans,Verdana,Geneva,sans-serif" font-size="11">
        <text x="85.5" y="15" fill="#010101" fill-opacity=".3">57.6216%</text>
        <text x="84.5" y="14">57.6216%</text>
    </g>
</svg>
