<?xml version="1.0" encoding="UTF-8"?>
<svg xmlns="http://www.w3.org/2000/svg" width="199" height="20">
    <linearGradient id="b" x2="0" y2="100%">
        <stop offset="0" stop-color="#bbb" stop-opacity=".1"/>
        <stop offset="1" stop-opacity=".1"/>
    </linearGradient>
    <mask id="anybadge_1">
        <rect width="199" height="20" rx="3" fill="#fff"/>
    </mask>
    <g mask="url(#anybadge_1)">
        <path fill="#555" d="M0 0h132v20H0z"/>
        <path fill="#c0a500" d="M132 0h67v20H132z"/>
        <path fill="url(#b)" d="M0 0h199v20H0z"/>
    </g>
    <g fill="#fff" text-anchor="middle" font-family="DejaVu Sans,Verdana,Geneva,sans-serif" font-size="11">
        <text x="67.0" y="15" fill="#010101" fill-opacity=".3">Donkey Kong 64 (US)</text>
        <text x="66.0" y="14">Donkey Kong 64 (US)</text>
    </g>
    <g fill="#fff" text-anchor="middle" font-family="DejaVu Sans,Verdana,Geneva,sans-serif" font-size="11">
        <text x="166.5" y="15" fill="#010101" fill-opacity=".3">43.0472%</text>
        <text x="165.5" y="14">43.0472%</text>
    </g>
</svg>
