<?xml version="1.0" encoding="UTF-8"?>
<svg xmlns="http://www.w3.org/2000/svg" width="138" height="20">
    <linearGradient id="b" x2="0" y2="100%">
        <stop offset="0" stop-color="#bbb" stop-opacity=".1"/>
        <stop offset="1" stop-opacity=".1"/>
    </linearGradient>
    <mask id="anybadge_1">
        <rect width="138" height="20" rx="3" fill="#fff"/>
    </mask>
    <g mask="url(#anybadge_1)">
        <path fill="#555" d="M0 0h71v20H0z"/>
        <path fill="#b2c000" d="M71 0h67v20H71z"/>
        <path fill="url(#b)" d="M0 0h138v20H0z"/>
    </g>
    <g fill="#fff" text-anchor="middle" font-family="DejaVu Sans,Verdana,Geneva,sans-serif" font-size="11">
        <text x="36.5" y="15" fill="#010101" fill-opacity=".3">dk64_boot</text>
        <text x="35.5" y="14">dk64_boot</text>
    </g>
    <g fill="#fff" text-anchor="middle" font-family="DejaVu Sans,Verdana,Geneva,sans-serif" font-size="11">
        <text x="105.5" y="15" fill="#010101" fill-opacity=".3">53.5477%</text>
        <text x="104.5" y="14">53.5477%</text>
    </g>
</svg>
